^C:\MA_HOLO\APP\BUILD\OBJ\MA_HOLO\WIN32\RELEASE\APP.OBJ|C:\MA_HOLO\APP\BUILD\OBJ\MA_HOLO\WIN32\RELEASE\MAIN.OBJ|C:\MA_HOLO\APP\BUILD\OBJ\MA_HOLO\WIN32\RELEASE\PCH.OBJ|C:\MA_HOLO\APP\BUILD\OBJ\MA_HOLO\WIN32\RELEASE\UNITYGENERATED.OBJ|C:\MA_HOLO\APP\MA_HOLO\RESOURCE.RES
C:\WINDOWS\GLOBALIZATION\SORTING\SORTDEFAULT.NLS
C:\PROGRAM FILES (X86)\WINDOWS KITS\10\LIB\10.0.15063.0\UM\X86\WINDOWSAPP.LIB
C:\MA_HOLO\APP\BUILD\BIN\WIN32\RELEASE\GAMEASSEMBLY.LIB
C:\MA_HOLO\APP\BUILD\OBJ\MA_HOLO\WIN32\RELEASE\APP.OBJ
C:\MA_HOLO\APP\BUILD\OBJ\MA_HOLO\WIN32\RELEASE\MAIN.OBJ
C:\MA_HOLO\APP\BUILD\OBJ\MA_HOLO\WIN32\RELEASE\PCH.OBJ
C:\MA_HOLO\APP\BUILD\OBJ\MA_HOLO\WIN32\RELEASE\UNITYGENERATED.OBJ
C:\MA_HOLO\APP\MA_HOLO\RESOURCE.RES
C:\PROGRAM FILES (X86)\MICROSOFT VISUAL STUDIO 14.0\VC\BIN\C2.DLL
C:\WINDOWS\MICROSOFT.NET\FRAMEWORK\V2.0.50727\MSCORWKS.DLL
C:\WINDOWS\MICROSOFT.NET\FRAMEWORK\V4.0.30319\CLR.DLL
C:\PROGRAM FILES (X86)\MICROSOFT VISUAL STUDIO 14.0\VC\BIN\LINK.EXE.CONFIG
C:\PROGRAM FILES (X86)\MICROSOFT VISUAL STUDIO 14.0\VC\LIB\STORE\VCCORLIB.LIB
C:\PROGRAM FILES (X86)\WINDOWS KITS\10\LIB\10.0.15063.0\UM\X86\UUID.LIB
C:\PROGRAM FILES (X86)\MICROSOFT VISUAL STUDIO 14.0\VC\LIB\STORE\MSVCRT.LIB
C:\PROGRAM FILES (X86)\MICROSOFT VISUAL STUDIO 14.0\VC\LIB\STORE\OLDNAMES.LIB
C:\PROGRAM FILES (X86)\MICROSOFT VISUAL STUDIO 14.0\VC\LIB\STORE\VCRUNTIME.LIB
C:\PROGRAM FILES (X86)\WINDOWS KITS\10\LIB\10.0.15063.0\UCRT\X86\UCRT.LIB
C:\PROGRAM FILES (X86)\MICROSOFT VISUAL STUDIO 14.0\VC\BIN\1033\LINKUI.DLL
C:\PROGRAM FILES (X86)\MICROSOFT VISUAL STUDIO 14.0\VC\LIB\STORE\REFERENCES\PLATFORM.WINMD
C:\PROGRAM FILES (X86)\WINDOWS KITS\10\REFERENCES\10.0.15063.0\WINDOWS.FOUNDATION.FOUNDATIONCONTRACT\3.0.0.0\WINDOWS.FOUNDATION.FOUNDATIONCONTRACT.WINMD
C:\PROGRAM FILES (X86)\WINDOWS KITS\10\REFERENCES\10.0.15063.0\WINDOWS.FOUNDATION.UNIVERSALAPICONTRACT\4.0.0.0\WINDOWS.FOUNDATION.UNIVERSALAPICONTRACT.WINMD
C:\PROGRAM FILES (X86)\WINDOWS KITS\10\REFERENCES\10.0.15063.0\WINDOWS.APPLICATIONMODEL.ACTIVATION.WEBUISEARCHACTIVATEDEVENTSCONTRACT\1.0.0.0\WINDOWS.APPLICATIONMODEL.ACTIVATION.WEBUISEARCHACTIVATEDEVENTSCONTRACT.WINMD
C:\PROGRAM FILES (X86)\WINDOWS KITS\10\REFERENCES\10.0.15063.0\WINDOWS.APPLICATIONMODEL.CALLS.BACKGROUND.CALLSBACKGROUNDCONTRACT\1.0.0.0\WINDOWS.APPLICATIONMODEL.CALLS.BACKGROUND.CALLSBACKGROUNDCONTRACT.WINMD
C:\PROGRAM FILES (X86)\WINDOWS KITS\10\REFERENCES\10.0.15063.0\WINDOWS.APPLICATIONMODEL.CALLS.CALLSPHONECONTRACT\3.0.0.0\WINDOWS.APPLICATIONMODEL.CALLS.CALLSPHONECONTRACT.WINMD
C:\PROGRAM FILES (X86)\WINDOWS KITS\10\REFERENCES\10.0.15063.0\WINDOWS.APPLICATIONMODEL.COMMUNICATIONBLOCKING.COMMUNICATIONBLOCKINGCONTRACT\2.0.0.0\WINDOWS.APPLICATIONMODEL.COMMUNICATIONBLOCKING.COMMUNICATIONBLOCKINGCONTRACT.WINMD
C:\PROGRAM FILES (X86)\WINDOWS KITS\10\REFERENCES\10.0.15063.0\WINDOWS.APPLICATIONMODEL.WALLET.WALLETCONTRACT\1.0.0.0\WINDOWS.APPLICATIONMODEL.WALLET.WALLETCONTRACT.WINMD
C:\PROGRAM FILES (X86)\WINDOWS KITS\10\REFERENCES\10.0.15063.0\WINDOWS.DEVICES.SMARTCARDS.SMARTCARDBACKGROUNDTRIGGERCONTRACT\3.0.0.0\WINDOWS.DEVICES.SMARTCARDS.SMARTCARDBACKGROUNDTRIGGERCONTRACT.WINMD
C:\PROGRAM FILES (X86)\WINDOWS KITS\10\REFERENCES\10.0.15063.0\WINDOWS.DEVICES.SMARTCARDS.SMARTCARDEMULATORCONTRACT\4.0.0.0\WINDOWS.DEVICES.SMARTCARDS.SMARTCARDEMULATORCONTRACT.WINMD
C:\PROGRAM FILES (X86)\WINDOWS KITS\10\REFERENCES\10.0.15063.0\WINDOWS.EMBEDDED.DEVICELOCKDOWN.DEVICELOCKDOWNCONTRACT\1.0.0.0\WINDOWS.EMBEDDED.DEVICELOCKDOWN.DEVICELOCKDOWNCONTRACT.WINMD
C:\PROGRAM FILES (X86)\WINDOWS KITS\10\REFERENCES\10.0.15063.0\WINDOWS.GAMING.PREVIEW.GAMESENUMERATIONCONTRACT\1.0.0.0\WINDOWS.GAMING.PREVIEW.GAMESENUMERATIONCONTRACT.WINMD
C:\PROGRAM FILES (X86)\WINDOWS KITS\10\REFERENCES\10.0.15063.0\WINDOWS.NETWORKING.NETWORKOPERATORS.NETWORKOPERATORSFDNCONTRACT\1.0.0.0\WINDOWS.NETWORKING.NETWORKOPERATORS.NETWORKOPERATORSFDNCONTRACT.WINMD
C:\PROGRAM FILES (X86)\WINDOWS KITS\10\REFERENCES\10.0.15063.0\WINDOWS.NETWORKING.SOCKETS.CONTROLCHANNELTRIGGERCONTRACT\2.0.0.0\WINDOWS.NETWORKING.SOCKETS.CONTROLCHANNELTRIGGERCONTRACT.WINMD
C:\PROGRAM FILES (X86)\WINDOWS KITS\10\REFERENCES\10.0.15063.0\WINDOWS.PHONE.PHONECONTRACT\1.0.0.0\WINDOWS.PHONE.PHONECONTRACT.WINMD
C:\PROGRAM FILES (X86)\WINDOWS KITS\10\REFERENCES\10.0.15063.0\WINDOWS.PHONE.STARTSCREEN.DUALSIMTILECONTRACT\1.0.0.0\WINDOWS.PHONE.STARTSCREEN.DUALSIMTILECONTRACT.WINMD
C:\PROGRAM FILES (X86)\WINDOWS KITS\10\REFERENCES\10.0.15063.0\WINDOWS.SECURITY.ENTERPRISEDATA.ENTERPRISEDATACONTRACT\4.0.0.0\WINDOWS.SECURITY.ENTERPRISEDATA.ENTERPRISEDATACONTRACT.WINMD
C:\PROGRAM FILES (X86)\WINDOWS KITS\10\REFERENCES\10.0.15063.0\WINDOWS.SERVICES.MAPS.GUIDANCECONTRACT\2.0.0.0\WINDOWS.SERVICES.MAPS.GUIDANCECONTRACT.WINMD
C:\PROGRAM FILES (X86)\WINDOWS KITS\10\REFERENCES\10.0.15063.0\WINDOWS.SERVICES.MAPS.LOCALSEARCHCONTRACT\3.0.0.0\WINDOWS.SERVICES.MAPS.LOCALSEARCHCONTRACT.WINMD
C:\PROGRAM FILES (X86)\WINDOWS KITS\10\REFERENCES\10.0.15063.0\WINDOWS.SYSTEM.PROFILE.PROFILERETAILINFOCONTRACT\1.0.0.0\WINDOWS.SYSTEM.PROFILE.PROFILERETAILINFOCONTRACT.WINMD
C:\PROGRAM FILES (X86)\WINDOWS KITS\10\REFERENCES\10.0.15063.0\WINDOWS.SYSTEM.USERPROFILE.USERPROFILECONTRACT\1.0.0.0\WINDOWS.SYSTEM.USERPROFILE.USERPROFILECONTRACT.WINMD
C:\PROGRAM FILES (X86)\WINDOWS KITS\10\REFERENCES\10.0.15063.0\WINDOWS.UI.WEBUI.CORE.WEBUICOMMANDBARCONTRACT\1.0.0.0\WINDOWS.UI.WEBUI.CORE.WEBUICOMMANDBARCONTRACT.WINMD
C:\PROGRAM FILES\UNITY\EDITOR\DATA\PLAYBACKENGINES\METROSUPPORT\PLAYERS\UAP\IL2CPP\X86\RELEASE\UNITYPLAYER.WINMD
C:\PROGRAM FILES (X86)\WINDOWS KITS\10\REFERENCES\10.0.15063.0\WINDOWS.APPLICATIONMODEL.CALLS.CALLSVOIPCONTRACT\1.0.0.0\WINDOWS.APPLICATIONMODEL.CALLS.CALLSVOIPCONTRACT.WINMD
C:\PROGRAM FILES (X86)\WINDOWS KITS\10\REFERENCES\10.0.15063.0\WINDOWS.APPLICATIONMODEL.SOCIALINFO.SOCIALINFOCONTRACT\2.0.0.0\WINDOWS.APPLICATIONMODEL.SOCIALINFO.SOCIALINFOCONTRACT.WINMD
C:\PROGRAM FILES (X86)\WINDOWS KITS\10\REFERENCES\10.0.15063.0\WINDOWS.DEVICES.DEVICESLOWLEVELCONTRACT\3.0.0.0\WINDOWS.DEVICES.DEVICESLOWLEVELCONTRACT.WINMD
C:\PROGRAM FILES (X86)\WINDOWS KITS\10\REFERENCES\10.0.15063.0\WINDOWS.DEVICES.PRINTERS.PRINTERSCONTRACT\1.0.0.0\WINDOWS.DEVICES.PRINTERS.PRINTERSCONTRACT.WINMD
C:\PROGRAM FILES (X86)\WINDOWS KITS\10\REFERENCES\10.0.15063.0\WINDOWS.GRAPHICS.PRINTING3D.PRINTING3DCONTRACT\3.0.0.0\WINDOWS.GRAPHICS.PRINTING3D.PRINTING3DCONTRACT.WINMD
C:\PROGRAM FILES (X86)\WINDOWS KITS\10\REFERENCES\10.0.15063.0\WINDOWS.NETWORKING.CONNECTIVITY.WWANCONTRACT\1.0.0.0\WINDOWS.NETWORKING.CONNECTIVITY.WWANCONTRACT.WINMD
C:\PROGRAM FILES (X86)\WINDOWS KITS\10\REFERENCES\10.0.15063.0\WINDOWS.SERVICES.STORE.STORECONTRACT\2.0.0.0\WINDOWS.SERVICES.STORE.STORECONTRACT.WINMD
C:\PROGRAM FILES (X86)\WINDOWS KITS\10\REFERENCES\10.0.15063.0\WINDOWS.SERVICES.TARGETEDCONTENT.TARGETEDCONTENTCONTRACT\1.0.0.0\WINDOWS.SERVICES.TARGETEDCONTENT.TARGETEDCONTENTCONTRACT.WINMD
C:\PROGRAM FILES (X86)\WINDOWS KITS\10\REFERENCES\10.0.15063.0\WINDOWS.SYSTEM.PROFILE.PROFILEHARDWARETOKENCONTRACT\1.0.0.0\WINDOWS.SYSTEM.PROFILE.PROFILEHARDWARETOKENCONTRACT.WINMD
C:\PROGRAM FILES (X86)\WINDOWS KITS\10\REFERENCES\10.0.15063.0\WINDOWS.SYSTEM.PROFILE.PROFILESHAREDMODECONTRACT\2.0.0.0\WINDOWS.SYSTEM.PROFILE.PROFILESHAREDMODECONTRACT.WINMD
C:\PROGRAM FILES (X86)\WINDOWS KITS\10\REFERENCES\10.0.15063.0\WINDOWS.UI.VIEWMANAGEMENT.VIEWMANAGEMENTVIEWSCALINGCONTRACT\1.0.0.0\WINDOWS.UI.VIEWMANAGEMENT.VIEWMANAGEMENTVIEWSCALINGCONTRACT.WINMD
C:\MA_HOLO\APP\BUILD\BIN\WIN32\RELEASE\MA_HOLO.IPDB
C:\MA_HOLO\APP\BUILD\BIN\WIN32\RELEASE\MA_HOLO.IOBJ
C:\MA_HOLO\APP\BUILD\BIN\WIN32\RELEASE\MA_HOLO.WINMD
C:\WINDOWS\SYSTEM32\TZRES.DLL
C:\PROGRAM FILES (X86)\MICROSOFT VISUAL STUDIO 14.0\VC\BIN\CVTRES.EXE
